…
Voilà! What you see is a plain `SummarizedExperiment` with
“traitproteomics” type. Think of it as your original dataset’s
sophisticated cousin 🎭 — instead of tracking “quantification of each
glycan on each glycosite in each sample,” it now contains “the value of
each derived trait on each glycosite in each sample.”

``` r

tibble::as_tibble(rowData(trait_se), rownames = "variable")
#> # A tibble: 3,864 × 6
#>    variable      protein protein_site trait gene  explanation
#>    <chr>         <chr>          <int> <chr> <chr> <chr>
#>  1 A6NJW9-49-TM  A6NJW9            49 TM    CD8B2 Proportion of high-mannose gl…
#>  2 A6NJW9-49-TH  A6NJW9            49 TH    CD8B2 Proportion of hybrid glycans …
#>  3 A6NJW9-49-TC  A6NJW9            49 TC    CD8B2 Proportion of complex glycans…
#>  4 A6NJW9-49-MM  A6NJW9            49 MM    CD8B2 Abundance-weighted mean of ma…
#>  5 A6NJW9-49-CA2 A6NJW9            49 CA2   CD8B2 Proportion of bi-antennary gl…
#>  6 A6NJW9-49-CA3 A6NJW9            49 CA3   CD8B2 Proportion of tri-antennary g…
#>  7 A6NJW9-49-CA4 A6NJW9            49 CA4   CD8B2 Proportion of tetra-antennary…
#>  8 A6NJW9-49-TF  A6NJW9            49 TF    CD8B2 Proportion of fucosylated gly…
#>  9 A6NJW9-49-TFc A6NJW9            49 TFc   CD8B2 Proportion of core-fucosylate…
#> 10 A6NJW9-49-TFa A6NJW9            49 TFa   CD8B2 Proportion of arm-fucosylated…
#> # ℹ 3,854 more rows
```
…
