…
Let’s inspect the dataset before calculating traits:

``` r

tibble::as_tibble(rowData(glyco_se), rownames = "variable")
#> # A tibble: 57 × 3
#>    variable                             glycan_composition      glycan_structure
#>    <chr>                                <comp>                  <struct>        
#>  1 Man(3)GlcNAc(3)                      Man(3)GlcNAc(3)         GlcNAc(?1-?)Man…
#>  2 Man(3)GlcNAc(7)                      Man(3)GlcNAc(7)         GlcNAc(?1-?)[Gl…
#>  3 Man(5)GlcNAc(2)                      Man(5)GlcNAc(2)         Man(?1-?)[Man(?…
#>  4 Man(4)Gal(2)GlcNAc(4)Neu5Ac(2)       Man(4)Gal(2)GlcNAc(4)N… Neu5Ac(?2-?)Gal…
#>  5 Man(3)Gal(1)GlcNAc(3)                Man(3)Gal(1)GlcNAc(3)   Gal(?1-?)GlcNAc…
#>  6 Man(3)Gal(2)GlcNAc(4)Fuc(2)          Man(3)Gal(2)GlcNAc(4)F… Gal(?1-?)GlcNAc…
#>  7 Man(3)GlcNAc(3)Fuc(1)                Man(3)GlcNAc(3)Fuc(1)   GlcNAc(?1-?)Man…
#>  8 Man(3)GlcNAc(4)                      Man(3)GlcNAc(4)         GlcNAc(?1-?)Man…
#>  9 Man(3)Gal(2)GlcNAc(5)Neu5Ac(1)       Man(3)Gal(2)GlcNAc(5)N… Neu5Ac(?2-?)Gal…
#> 10 Man(3)Gal(1)GlcNAc(5)Fuc(1)Neu5Ac(1) Man(3)Gal(1)GlcNAc(5)F… Neu5Ac(?2-?)Gal…
#> # ℹ 47 more rows
```

``` r

tibble::as_tibble(colData(glyco_se), rownames = "sample")
#> # A tibble: 144 × 2
#>    sample group
#>    <chr>  <fct>
#>  1 S1     H    
#>  2 S2     H    
#>  3 S3     Y    
#>  4 S4     C    
#>  5 S5     H    
#>  6 S6     C    
#>  7 S7     M    
#>  8 S8     C    
#>  9 S9     M    
#> 10 S10    M    
#> # ℹ 134 more rows
```
…
### add_meta_properties()

When working with `GlycomicSE` or `GlycoproteomicSE` objects, you can
add meta-properties directly to
[`rowData()`](https://rdrr.io/pkg/SummarizedExperiment/man/SummarizedExperiment-class.html):

``` r

se_with_mp <- add_meta_properties(glyco_se)
tibble::as_tibble(rowData(se_with_mp), rownames = "variable")
#> # A tibble: 57 × 13
#>    variable    glycan_composition glycan_structure Tp    B        nA    nF   nFc
#>    <chr>       <comp>             <struct>         <fct> <lgl> <int> <int> <int>
#>  1 Man(3)GlcN… Man(3)GlcNAc(3)    GlcNAc(?1-?)Man… hybr… FALSE     1     0     0
#>  2 Man(3)GlcN… Man(3)GlcNAc(7)    GlcNAc(?1-?)[Gl… comp… TRUE      4     0     0
#>  3 Man(5)GlcN… Man(5)GlcNAc(2)    Man(?1-?)[Man(?… high… FALSE     0     0     0
#>  4 Man(4)Gal(… Man(4)Gal(2)GlcNA… Neu5Ac(?2-?)Gal… comp… FALSE     2     0     0
#>  5 Man(3)Gal(… Man(3)Gal(1)GlcNA… Gal(?1-?)GlcNAc… hybr… FALSE     1     0     0
#>  6 Man(3)Gal(… Man(3)Gal(2)GlcNA… Gal(?1-?)GlcNAc… comp… FALSE     2     2     1
#>  7 Man(3)GlcN… Man(3)GlcNAc(3)Fu… GlcNAc(?1-?)Man… hybr… FALSE     1     1     1
#>  8 Man(3)GlcN… Man(3)GlcNAc(4)    GlcNAc(?1-?)Man… comp… FALSE     2     0     0
#>  9 Man(3)Gal(… Man(3)Gal(2)GlcNA… Neu5Ac(?2-?)Gal… comp… TRUE      2     0     0
#> 10 Man(3)Gal(… Man(3)Gal(1)GlcNA… Neu5Ac(?2-?)Gal… comp… TRUE      2     1     1
#> # ℹ 47 more rows
#> # ℹ 5 more variables: nFa <int>, nG <int>, nGt <int>, nS <int>, nM <int>
```
…
