Quantifying Glycan Motifs • glydet
…
# Quantify the motifs in our dataset
motif_se <- quantify_motifs(gp_se, motifs)
motif_se
#> class: SummarizedExperiment 
#> dim: 552 12 
#> metadata(3): exp_type glycan_type quant_method
#> assays(1): abundance
#> rownames(552): A6NJW9-49-Lxa A6NJW9-49-SLxa ... Q9Y6W6-184-Lxa
#>   Q9Y6W6-184-SLxa
#> rowData names(5): protein protein_site trait gene motif_structure
#> colnames(12): C1 C2 ... Y2 Y3
#> colData names(1): group

tibble::as_tibble(rowData(motif_se), rownames = "variable")
#> # A tibble: 552 × 6
#>    variable        protein protein_site trait gene   motif_structure            
#>    <chr>           <chr>          <int> <chr> <chr>  <struct>                   
#>  1 A6NJW9-49-Lxa   A6NJW9            49 Lxa   CD8B2  Hex(??-?)[dHex(??-?)]HexNA…
#>  2 A6NJW9-49-SLxa  A6NJW9            49 SLxa  CD8B2  NeuAc(??-?)Hex(??-?)[dHex(…
#>  3 O14786-150-Lxa  O14786           150 Lxa   NRP1   Hex(??-?)[dHex(??-?)]HexNA…
#>  4 O14786-150-SLxa O14786           150 SLxa  NRP1   NeuAc(??-?)Hex(??-?)[dHex(…
#>  5 O43866-226-Lxa  O43866           226 Lxa   CD5L   Hex(??-?)[dHex(??-?)]HexNA…
#>  6 O43866-226-SLxa O43866           226 SLxa  CD5L   NeuAc(??-?)Hex(??-?)[dHex(…
#>  7 O75437-244-Lxa  O75437           244 Lxa   ZNF254 Hex(??-?)[dHex(??-?)]HexNA…
#>  8 O75437-244-SLxa O75437           244 SLxa  ZNF254 NeuAc(??-?)Hex(??-?)[dHex(…
#>  9 O75581-281-Lxa  O75581           281 Lxa   LRP6   Hex(??-?)[dHex(??-?)]HexNA…
#> 10 O75581-281-SLxa O75581           281 SLxa  LRP6   NeuAc(??-?)Hex(??-?)[dHex(…
#> # ℹ 542 more rows
…
